{
  "cmsUrl": "https://cms.pragozor.cz",
  "apiUrl": "https://api.pragozor.cz",
  "recaptchaSiteKey": "6LftGbQZAAAAAGUJpneXH8Qy4fk2oCBP1nGS-0yM",
  "googleAnalyticsID": "UA-175598315-1",
  "googleAnalyticsCookielessID": "G-QRERWVPKN3",
  "prahaPracujeUrl": "https://projekty.pragozor.cz"
}
