<svg xmlns="http://www.w3.org/2000/svg" xmlns:xlink="http://www.w3.org/1999/xlink" viewBox="0 0 437.08 147.83">
  <defs>
    <style>
      .cls-1 {
        fill: url(#linear-gradient);
      }

      .cls-2 {
        fill: url(#linear-gradient-2);
      }

      .cls-3 {
        fill: url(#linear-gradient-3);
      }

      .cls-4 {
        fill: url(#linear-gradient-4);
      }

      .cls-5 {
        fill: url(#linear-gradient-5);
      }

      .cls-6 {
        fill: url(#linear-gradient-6);
      }

      .cls-7 {
        fill: url(#linear-gradient-7);
      }

      .cls-8 {
        fill: url(#linear-gradient-8);
      }

      .cls-9 {
        fill: url(#linear-gradient-9);
      }

      .cls-10 {
        fill: url(#linear-gradient-10);
      }

      .cls-11 {
        fill: url(#linear-gradient-11);
      }

      .cls-12 {
        fill: url(#linear-gradient-12);
      }

      .cls-13 {
        fill: url(#linear-gradient-13);
      }

      .cls-14 {
        fill: url(#linear-gradient-14);
      }

      .cls-15 {
        fill: url(#linear-gradient-15);
      }

      .cls-16 {
        fill: #622061;
      }

      .cls-17 {
        fill: #ec1459;
      }

    </style>
    <linearGradient id="linear-gradient" x1="128.66" y1="28.91" x2="184.87" y2="28.91" gradientUnits="userSpaceOnUse">
      <stop offset="0" stop-color="#42f098" />
      <stop offset="1" stop-color="#0dc9bb" />
    </linearGradient>
    <linearGradient id="linear-gradient-2" x1="172.68" y1="44.87" x2="206.83" y2="44.87"
      xlink:href="#linear-gradient" />
    <linearGradient id="linear-gradient-3" x1="176.94" y1="86.96" x2="206.56" y2="86.96"
      xlink:href="#linear-gradient" />
    <linearGradient id="linear-gradient-4" x1="108.9" y1="130.13" x2="174.67" y2="51.91"
      xlink:href="#linear-gradient" />
    <linearGradient id="linear-gradient-5" x1="111.37" y1="118.02" x2="164.3" y2="118.02"
      xlink:href="#linear-gradient" />
    <linearGradient id="linear-gradient-6" x1="242.43" y1="28.91" x2="298.65" y2="28.91" gradientUnits="userSpaceOnUse">
      <stop offset="0" stop-color="#9724ff" />
      <stop offset="0.75" stop-color="#5416a4" />
    </linearGradient>
    <linearGradient id="linear-gradient-7" x1="286.46" y1="44.87" x2="320.6" y2="44.87"
      xlink:href="#linear-gradient-6" />
    <linearGradient id="linear-gradient-8" x1="290.71" y1="86.96" x2="320.33" y2="86.96"
      xlink:href="#linear-gradient-6" />
    <linearGradient id="linear-gradient-9" x1="222.67" y1="130.13" x2="288.45" y2="51.91"
      xlink:href="#linear-gradient-6" />
    <linearGradient id="linear-gradient-10" x1="225.14" y1="118.02" x2="278.08" y2="118.02"
      xlink:href="#linear-gradient-6" />
    <linearGradient id="linear-gradient-11" x1="31.54" y1="55.01" x2="33.26" y2="55.01" gradientUnits="userSpaceOnUse">
      <stop offset="0.13" stop-color="#ecc652" />
      <stop offset="0.27" stop-color="#eba953" />
      <stop offset="0.49" stop-color="#ea8554" />
      <stop offset="0.68" stop-color="#e96b54" />
      <stop offset="0.86" stop-color="#e85b55" />
      <stop offset="1" stop-color="#e85555" />
    </linearGradient>
    <linearGradient id="linear-gradient-12" x1="54.13" y1="15.28" x2="84.34" y2="15.28"
      xlink:href="#linear-gradient-11" />
    <linearGradient id="linear-gradient-13" x1="33.26" y1="98.28" x2="93.96" y2="98.28"
      xlink:href="#linear-gradient-11" />
    <linearGradient id="linear-gradient-14" x1="0" y1="93.74" x2="67.67" y2="93.74" xlink:href="#linear-gradient-11" />
    <linearGradient id="linear-gradient-15" x1="5.15" y1="28.61" x2="64.09" y2="28.61"
      xlink:href="#linear-gradient-11" />
  </defs>
  <g id="Layer_2" data-name="Layer 2">
    <g id="Layer_11" data-name="Layer 11">
      <path class="cls-1"
        d="M139.43,57.82q.93-15.09,4.07-23Q148,23.7,158.29,23.7q9.78,0,14.39,10.34a36,36,0,0,1,.57-5A39.53,39.53,0,0,1,184.87,8Q174.13,0,158.29,0A50.07,50.07,0,0,0,137.8,3.93a40.14,40.14,0,0,0-9.14,25.86A45.23,45.23,0,0,0,139.43,57.82Z" />
      <path class="cls-2"
        d="M184.87,8a39.53,39.53,0,0,0-11.62,21.11,36,36,0,0,0-.57,5c.12.26.24.52.35.8q2.82,6.81,3.91,19A38.6,38.6,0,0,0,187.2,66.74c4.87,3.92,10.63,6.63,15.36,10.71a25.76,25.76,0,0,1,4,4.33c.17-3.31.27-6.73.27-10.31q0-35.07-12.28-53.27A41.37,41.37,0,0,0,184.87,8Z" />
      <path class="cls-3"
        d="M202.56,77.45c-4.73-4.08-10.49-6.79-15.36-10.71a38.6,38.6,0,0,1-10.26-12.88q.69,7.72.69,17.61,0,8.22-.49,14.93a81.72,81.72,0,0,1,20.06,31.33c.27.77.52,1.55.77,2.33q7.34-14.32,8.59-38.28A25.76,25.76,0,0,0,202.56,77.45Z" />
      <path class="cls-4"
        d="M177.14,86.4q-1,13.92-4.06,21.47-4.54,11.19-14.79,11.19-10.42,0-14.83-11t-4.41-36.55c0-5,.13-9.5.38-13.65a45.23,45.23,0,0,1-10.77-28A40.14,40.14,0,0,1,137.8,3.93a37.47,37.47,0,0,0-16,13.46Q110,34.79,110,71.47a156.67,156.67,0,0,0,1.42,21.9c.79,1.28,1.64,2.53,2.55,3.73,8.49,11.28,21.09,18.56,32.38,27.05,6.79,5.12,13.4,11.17,18,18.24q20.22-1.92,30.63-17.17a48.64,48.64,0,0,0,3-5.16c-.25-.78-.5-1.56-.77-2.33A81.72,81.72,0,0,0,177.14,86.4Z" />
      <path class="cls-5"
        d="M146.3,124.15c-11.29-8.49-23.89-15.77-32.38-27.05-.91-1.2-1.76-2.45-2.55-3.73q2.73,19.38,10.76,31.28,12.18,18,36.16,18c2.07,0,4.08-.09,6-.27C159.7,135.32,153.09,129.27,146.3,124.15Z" />
      <path class="cls-6"
        d="M253.21,57.82q.93-15.09,4.07-23,4.46-11.15,14.79-11.14,9.76,0,14.39,10.34a36,36,0,0,1,.57-5A39.53,39.53,0,0,1,298.65,8Q287.91,0,272.07,0a50,50,0,0,0-20.49,3.93,40.09,40.09,0,0,0-9.14,25.86A45.23,45.23,0,0,0,253.21,57.82Z" />
      <path class="cls-7"
        d="M298.65,8A39.53,39.53,0,0,0,287,29.08a36,36,0,0,0-.57,5c.12.26.24.52.35.8q2.82,6.81,3.9,19A38.75,38.75,0,0,0,301,66.74c4.87,3.92,10.62,6.63,15.35,10.71a25.35,25.35,0,0,1,4,4.33c.18-3.31.27-6.73.27-10.31q0-35.07-12.27-53.27A41.56,41.56,0,0,0,298.65,8Z" />
      <path class="cls-8"
        d="M316.33,77.45c-4.73-4.08-10.48-6.79-15.35-10.71a38.75,38.75,0,0,1-10.27-12.88q.69,7.72.7,17.61,0,8.22-.49,14.93A81.72,81.72,0,0,1,311,117.73c.27.77.52,1.55.77,2.33q7.33-14.32,8.58-38.28A25.35,25.35,0,0,0,316.33,77.45Z" />
      <path class="cls-9"
        d="M290.92,86.4q-1,13.92-4.06,21.47-4.56,11.19-14.79,11.19-10.43,0-14.83-11t-4.41-36.55c0-5,.13-9.5.38-13.65a45.23,45.23,0,0,1-10.77-28,40.09,40.09,0,0,1,9.14-25.86,37.47,37.47,0,0,0-16,13.46q-11.85,17.4-11.85,54.08a158.28,158.28,0,0,0,1.41,21.9c.8,1.28,1.65,2.53,2.55,3.73,8.5,11.28,21.1,18.56,32.38,27.05,6.8,5.12,13.41,11.17,18,18.24q20.22-1.92,30.63-17.17a48.64,48.64,0,0,0,3-5.16c-.25-.78-.5-1.56-.77-2.33A81.72,81.72,0,0,0,290.92,86.4Z" />
      <path class="cls-10"
        d="M260.07,124.15c-11.28-8.49-23.88-15.77-32.38-27.05-.9-1.2-1.75-2.45-2.55-3.73q2.75,19.38,10.77,31.28,12.18,18,36.16,18,3.1,0,6-.27C273.48,135.32,266.87,129.27,260.07,124.15Z" />
      <path class="cls-11" d="M33.26,55.13l-1.63-.58-.09.92Z" />
      <path class="cls-12" d="M84.34,27.87V2.68H54.13a63.33,63.33,0,0,0,10,25.19Z" />
      <path class="cls-13"
        d="M81.89,64.9Q69.82,53.46,49.43,53.45A66,66,0,0,0,34.91,54.8l-1.65.33c6.59,2.37,13,5.07,18.23,9.61,7.38,6.37,11.64,15.7,14,25.17,4.13,16.79,2.62,35.27-6,50.28-.57,1-1.18,2-1.81,2.92q13.08-3.06,21.75-10.6Q94,119.81,94,96.25,94,76.35,81.89,64.9Z" />
      <path class="cls-14"
        d="M65.47,89.91c-2.34-9.47-6.6-18.8-14-25.17-5.26-4.54-11.64-7.24-18.23-9.61l-1.72.34.09-.92c-4-1.41-8.06-2.74-12-4.33A69,69,0,0,1,5.15,42.28l-2.36,32,11.83,6.35a81.61,81.61,0,0,1,10-2.16,69.13,69.13,0,0,1,11.25-1q28.18,0,28.18,21.25,0,22.31-27.22,22.31a78.22,78.22,0,0,1-19.13-2.55A78.64,78.64,0,0,1,0,111.93V137.6q14.43,7.6,37.89,7.6a86.69,86.69,0,0,0,19.8-2.09c.63-1,1.24-1.93,1.81-2.92C68.09,125.18,69.6,106.7,65.47,89.91Z" />
      <path class="cls-15"
        d="M31.63,54.55l2.51-26.68h30a63.33,63.33,0,0,1-10-25.19H8.08L5.15,42.28a69,69,0,0,0,14.52,7.94C23.57,51.81,27.62,53.14,31.63,54.55Z" />
      <path class="cls-16"
        d="M436.41,94.48c-1.38-9.38-6.63-18.14-12.55-22.37-1-.74-2.16-1.5-3.26-2.35-.39-.3-.77-.6-1.15-.92h0a13.54,13.54,0,0,1-4.73-7,9.87,9.87,0,0,1-.23-1.25l-.06-.43h0c-.72-5.86-.93-14.8-9.93-15.4-9.23-.62-10.46,8.45-11.07,13.37s-1.88,6.55-5.69,8.76-12,2.26-11.14-10.27c.4-5.69-9-11.11-9.8-2.2-1.29,13.91.93,21,4.62,25.71,5.23,6.62,7.62,7.29,9.08,9.54,2,3.08,4,15,5.26,23.52.09.61.18,1.24.27,1.86.91,6.5,1.68,13.11,2.19,16.88.31,2.29.63,4.38,1,6.24.12.59.25,1.15.38,1.7h0c1.1,4.44,2.68,7.13,5.58,7.23,6.35.2,3.65-13.94,7.06-14.73s4.85,1,6,8c.76,4.65,1.79,8.67,7.11,7.19s3.8-37.82,6.81-38.67c3.53-1,2.91,6.49,3.08,9,.3,4.46.26,11.08,6.4,10.86C437.39,128.47,437.8,103.85,436.41,94.48Zm-38.32-4.9a2.06,2.06,0,0,0-1.46.6A2.06,2.06,0,0,1,398.09,89.58ZM410.66,93a2,2,0,0,0,1.46.61A2,2,0,0,1,410.66,93Z" />
      <path class="cls-17"
        d="M407.24,54a1.55,1.55,0,0,0-1.56,1.75,1.46,1.46,0,0,0,1.59,1.17,1.41,1.41,0,0,0,1.53-1.12A1.56,1.56,0,0,0,407.24,54Z" />
      <path class="cls-17"
        d="M399,54a1.55,1.55,0,0,0-1.56,1.75,1.46,1.46,0,0,0,1.59,1.17,1.41,1.41,0,0,0,1.53-1.12A1.56,1.56,0,0,0,399,54Z" />
      <path class="cls-17"
        d="M399.13,54.46a1.94,1.94,0,0,0-.29-.21,1.27,1.27,0,0,0-.84-.17c-6.34-2.9-36-16.38-40.54-16.88-5-.57-10.13,6.61-6.27,11s44.6,8.08,46.56,8.26a1.13,1.13,0,0,0,1.45-.24A1.11,1.11,0,0,0,399.13,54.46Z" />
      <ellipse class="cls-16" cx="354.28" cy="43.2" rx="4.68" ry="3.19"
        transform="translate(165.9 346.34) rotate(-65.09)" />
      <path class="cls-16"
        d="M370.72,40.3c-2.3,1.64-3.3,6.66-1.28,9.87,2.3,3.66,6.37,2.74,8.27.72,1.53-1.64,1.49-5.91-.56-8.83C375.68,40,372.64,38.92,370.72,40.3Z" />
      <path class="cls-16"
        d="M407.51,82l-1.75,1.29a1.46,1.46,0,0,1-2-.31l-6.63-9a9.35,9.35,0,0,0-1.18.75,9.1,9.1,0,0,0-.89.73l2.36,3.21a1.45,1.45,0,0,1-.31,2l-.81.59a1.33,1.33,0,1,1-1.95-.44,1.31,1.31,0,0,1,1.51,0l.87-.64a.81.81,0,0,0,.17-1.12l-2.3-3.13a9.89,9.89,0,0,0-1.74,11l2.68-2a1.43,1.43,0,0,1,2,.31l3,4a1.33,1.33,0,1,1-.41,2.2,1.33,1.33,0,0,1-.12-1.81l-3-4.06a.81.81,0,0,0-1.12-.17l-2.76,2a11.9,11.9,0,0,0,.68,1.06,9.89,9.89,0,0,0,15.74.23L408,86.53a.81.81,0,0,0-1.12-.17l-1.78,1.31a1.44,1.44,0,0,1-2-.31l-2.73-3.7a1.32,1.32,0,0,1-1.06-2.42,1.3,1.3,0,0,1,1.47.23,1.33,1.33,0,0,1,.12,1.81l2.72,3.7a.8.8,0,0,0,1.12.17l1.79-1.31a1.43,1.43,0,0,1,2,.31l1.48,2a9.74,9.74,0,0,0,1.23-2.56l-2.55-3.47A.8.8,0,0,0,407.51,82Z" />
      <path class="cls-16"
        d="M400.42,82.17a.68.68,0,0,0-1.14-.17.66.66,0,0,0-.11.7.68.68,0,0,0,1.14.17A.66.66,0,0,0,400.42,82.17Z" />
      <path class="cls-16" d="M394.7,81.32a.68.68,0,0,0-.14,1,.68.68,0,0,0,1.09-.8A.69.69,0,0,0,394.7,81.32Z" />
      <path class="cls-16"
        d="M409.72,76.78l-.13-.17-3,2.2a1.46,1.46,0,0,1-2-.31l-1.17-1.6a1.32,1.32,0,1,1,.52-.38l1.18,1.59a.8.8,0,0,0,1.12.17l3-2.17a9.89,9.89,0,0,0-11.49-2.48l6.56,8.92a.79.79,0,0,0,1.12.17l1.76-1.28a1.44,1.44,0,0,1,2,.3l2.25,3.06A9.88,9.88,0,0,0,409.72,76.78Z" />
      <path class="cls-16" d="M400.39,90.73a.68.68,0,0,0,1.14.17.66.66,0,0,0,.11-.7.68.68,0,1,0-1.25.53Z" />
      <path class="cls-16" d="M403.45,75.28a.68.68,0,1,0-1.09.8.68.68,0,0,0,1.09-.8Z" />
      <path class="cls-17"
        d="M405.1,78.11l-1.18-1.59a1.33,1.33,0,1,0-.52.38l1.17,1.6a1.46,1.46,0,0,0,2,.31l3-2.2c-.14-.18-.27-.34-.41-.5l-3,2.17A.8.8,0,0,1,405.1,78.11Zm-1.8-1.89a.67.67,0,0,1-.94-.14.68.68,0,1,1,1.09-.8A.67.67,0,0,1,403.3,76.22Z" />
      <path class="cls-17"
        d="M396.7,80.12l-.87.64a1.31,1.31,0,0,0-1.51,0,1.32,1.32,0,1,0,1.95.44l.81-.59a1.45,1.45,0,0,0,.31-2L395,75.41l-.46.46,2.3,3.13A.81.81,0,0,1,396.7,80.12Zm-1.2,2.29a.67.67,0,0,1-.94-.14.68.68,0,1,1,1.09-.8A.67.67,0,0,1,395.5,82.41Z" />
      <path class="cls-17"
        d="M407.13,81.44l-1.76,1.28a.79.79,0,0,1-1.12-.17l-6.56-8.92c-.2.09-.39.19-.59.3l6.63,9a1.46,1.46,0,0,0,2,.31L407.51,82a.8.8,0,0,1,1.12.17l2.55,3.47a7.94,7.94,0,0,0,.22-.8l-2.25-3.06A1.44,1.44,0,0,0,407.13,81.44Z" />
      <path class="cls-17"
        d="M406.45,85.84l-1.79,1.31a.8.8,0,0,1-1.12-.17l-2.72-3.7a1.33,1.33,0,0,0-.12-1.81,1.3,1.3,0,0,0-1.47-.23,1.32,1.32,0,0,0,1.06,2.42l2.73,3.7a1.44,1.44,0,0,0,2,.31l1.78-1.31a.81.81,0,0,1,1.12.17l1.6,2.18c.14-.18.27-.37.4-.55l-1.48-2A1.43,1.43,0,0,0,406.45,85.84Zm-7.28-3.14a.66.66,0,0,1,.11-.7.68.68,0,0,1,1.14.17.66.66,0,0,1-.11.7A.68.68,0,0,1,399.17,82.7Z" />
      <path class="cls-17"
        d="M397,85.56l3,4.06a1.32,1.32,0,1,0,.53-.39l-3-4.06a1.45,1.45,0,0,0-2-.3L392.65,87c.09.2.31.57.31.57l2.93-2.15A.8.8,0,0,1,397,85.56Zm4.63,4.63a.68.68,0,1,1-1.25.53.66.66,0,0,1,.11-.7A.68.68,0,0,1,401.64,90.19Z" />
      <path class="cls-17"
        d="M401.78,92.91a10.27,10.27,0,0,1-8.3-4.19,10.29,10.29,0,0,1,2.19-14.38,10.3,10.3,0,0,1,14.38,2.19h0a10.28,10.28,0,0,1-8.27,16.38Zm0-19.74A9.46,9.46,0,1,0,409.39,77,9.42,9.42,0,0,0,401.75,73.17Z" />
    </g>
  </g>
</svg>
