<?xml version="1.0" encoding="utf-8"?>
<!-- Generator: Adobe Illustrator 24.2.1, SVG Export Plug-In . SVG Version: 6.00 Build 0)  -->
<svg version="1.1" id="Layer_1" xmlns="http://www.w3.org/2000/svg" xmlns:xlink="http://www.w3.org/1999/xlink" x="0px" y="0px"
	 viewBox="0 0 15 15" style="enable-background:new 0 0 15 15;" xml:space="preserve">
<style type="text/css">
	.st0{fill:#C0C7CE;}
</style>
<path class="st0" d="M4.5,1.7l8.5,8.5c0.8,0.8,0.8,2,0,2.8l0,0c-0.8,0.8-2,0.8-2.8,0L1.7,4.5c-0.8-0.8-0.8-2,0-2.8l0,0
	C2.4,0.9,3.7,0.9,4.5,1.7z"/>
<path class="st0" d="M13,4.7l-8.5,8.5c-0.8,0.8-2,0.8-2.8,0l0,0c-0.8-0.8-0.8-2,0-2.8l8.5-8.5c0.8-0.8,2-0.8,2.8,0l0,0
	C13.8,2.6,13.8,3.9,13,4.7z"/>
</svg>
