<svg width="60" height="68" viewBox="0 0 60 68" fill="none" xmlns="http://www.w3.org/2000/svg">
<rect x="30.8805" y="28.6858" width="7.82337" height="38.0737" rx="3.91168" fill="url(#paint0_linear)"/>
<circle cx="26.708" cy="29.7289" r="14.6036" fill="url(#paint1_linear)"/>
<circle cx="34.2706" cy="19.5584" r="19.5584" fill="url(#paint2_linear)"/>
<circle cx="43.9194" cy="30.7719" r="15.1252" fill="url(#paint3_linear)"/>
<rect x="10.3393" y="46.73" width="4.30805" height="20.9658" rx="2.15402" fill="url(#paint4_linear)"/>
<circle cx="8.04169" cy="47.3041" r="8.04169" fill="url(#paint5_linear)"/>
<circle cx="12.2061" cy="41.7037" r="10.7701" fill="url(#paint6_linear)"/>
<circle cx="17.5193" cy="47.8789" r="8.32889" fill="url(#paint7_linear)"/>
<defs>
<linearGradient id="paint0_linear" x1="29.6339" y1="47.6923" x2="40.1761" y2="47.6923" gradientUnits="userSpaceOnUse">
<stop stop-color="#421B00"/>
<stop offset="1" stop-color="#714226"/>
</linearGradient>
<linearGradient id="paint1_linear" x1="26.708" y1="15.1252" x2="26.708" y2="44.3325" gradientUnits="userSpaceOnUse">
<stop stop-color="#0FB966"/>
<stop offset="1" stop-color="#0B6348"/>
</linearGradient>
<linearGradient id="paint2_linear" x1="34.2706" y1="0" x2="34.2706" y2="39.1168" gradientUnits="userSpaceOnUse">
<stop stop-color="#0FB966"/>
<stop offset="1" stop-color="#0B6348"/>
</linearGradient>
<linearGradient id="paint3_linear" x1="43.9194" y1="15.6467" x2="43.9194" y2="45.8971" gradientUnits="userSpaceOnUse">
<stop stop-color="#0FB966"/>
<stop offset="1" stop-color="#0B6348"/>
</linearGradient>
<linearGradient id="paint4_linear" x1="9.65282" y1="57.1962" x2="15.458" y2="57.1962" gradientUnits="userSpaceOnUse">
<stop stop-color="#421B00"/>
<stop offset="1" stop-color="#714226"/>
</linearGradient>
<linearGradient id="paint5_linear" x1="8.04169" y1="39.2625" x2="8.04169" y2="55.3458" gradientUnits="userSpaceOnUse">
<stop stop-color="#0FB966"/>
<stop offset="1" stop-color="#0B6348"/>
</linearGradient>
<linearGradient id="paint6_linear" x1="12.2061" y1="30.9336" x2="12.2061" y2="52.4738" gradientUnits="userSpaceOnUse">
<stop stop-color="#0FB966"/>
<stop offset="1" stop-color="#0B6348"/>
</linearGradient>
<linearGradient id="paint7_linear" x1="17.5193" y1="39.55" x2="17.5193" y2="56.2078" gradientUnits="userSpaceOnUse">
<stop stop-color="#0FB966"/>
<stop offset="1" stop-color="#0B6348"/>
</linearGradient>
</defs>
</svg>
