<svg width="1478" height="1478" viewBox="0 0 1478 1478" fill="none" xmlns="http://www.w3.org/2000/svg">
<g clip-path="url(#clip0)">
<path d="M713.96 1011.9C411.012 1015.22 184.141 964.382 17.2915 897.215C20.4064 911.351 23.8808 925.487 27.8743 939.624C138.694 1332.32 546.872 1560.86 939.594 1450.05C1215.75 1372.14 1410.71 1147.2 1463.58 883.997C1287.15 952.003 1042.71 1008.31 713.96 1011.9Z" fill="url(#paint0_linear)"/>
<path d="M713.96 1011.9C1042.71 1008.31 1287.15 952.003 1463.62 883.997C1485.95 772.864 1482.95 654.942 1450.08 538.377C1448.97 534.344 1447.73 530.351 1446.53 526.397C1402.32 547.003 1343.66 568.567 1266.58 587.695C1138.27 619.561 958.882 644.639 710.007 647.394C582.534 648.792 471.394 643.92 374.711 634.975C222.838 620.919 106.786 596.719 19.488 570.763C-5.07209 675.268 -7.06885 786.441 17.3315 897.295C184.141 964.343 411.052 1015.22 713.96 1011.9Z" fill="url(#paint1_linear)"/>
<path d="M709.966 647.354C958.842 644.639 1138.23 619.521 1266.54 587.654C1343.62 568.526 1402.28 546.963 1446.49 526.357C1330.84 141.044 927.054 -81.7026 538.365 27.9534C270.4 103.547 78.9113 317.587 19.4878 570.723C106.786 596.719 222.838 620.879 374.711 634.935C471.354 643.88 582.494 648.752 709.966 647.354Z" fill="url(#paint2_linear)"/>
<path d="M748.704 1084.62L806.929 1017.49C807.209 1017.17 806.93 1016.73 806.53 1016.81C772.545 1023.8 736.404 1024.8 699.145 1018.77C577.103 999.003 480.42 902.365 461.011 780.29C455.221 743.791 456.059 708.331 462.728 674.947C462.728 674.867 462.728 674.827 462.728 674.747L431.859 573.477C431.779 573.198 431.459 573.078 431.22 573.237L343.043 630.382C342.963 630.422 342.883 630.541 342.843 630.621C335.974 657.895 331.781 686.208 330.583 715.279C320.439 960.188 525.866 1163.09 770.668 1149.99C800.26 1148.39 829.054 1143.76 856.729 1136.29C857.128 1136.17 857.168 1135.65 856.808 1135.49L748.864 1085.26C748.624 1085.18 748.544 1084.82 748.704 1084.62ZM1040.11 434.51C1040.11 434.39 1040.07 434.311 1039.99 434.231C964.673 360.594 861.641 315.19 747.985 315.19C573.908 315.19 424.71 421.652 361.932 573.038C361.772 573.437 362.212 573.797 362.571 573.557L452.385 515.375C452.625 515.215 452.944 515.335 453.024 515.614L482.297 611.733C482.416 612.092 482.896 612.132 483.055 611.773C528.821 511.142 630.176 441.179 747.945 441.179C820.428 441.179 886.72 467.695 937.637 511.541L1043.94 537.098C1044.22 537.178 1044.46 536.938 1044.46 536.659L1040.11 434.51ZM1079.13 479.595L1083.6 584.219C1083.6 584.499 1083.36 584.698 1083.08 584.658L983.962 560.818C983.603 560.738 983.323 561.138 983.523 561.457C1018.27 609.337 1038.75 668.278 1038.75 731.971C1038.75 845.78 973.379 944.295 878.134 992.055C878.094 992.095 878.054 992.095 878.014 992.135L808.926 1071.76C808.727 1071.96 808.806 1072.28 809.046 1072.4L908.205 1118.56C908.325 1118.6 908.445 1118.6 908.564 1118.56C1059.56 1055.63 1165.67 906.638 1165.67 732.89C1165.67 637.49 1133.68 549.597 1079.89 479.275C1079.65 478.956 1079.13 479.155 1079.13 479.595Z" fill="#F7F7F7"/>
</g>
<defs>
<linearGradient id="paint0_linear" x1="-257.662" y1="1381.38" x2="1944.97" y2="759.738" gradientUnits="userSpaceOnUse">
<stop offset="0.0531" stop-color="#EC1459"/>
<stop offset="0.9749" stop-color="#622061"/>
</linearGradient>
<linearGradient id="paint1_linear" x1="-530.541" y1="1089.91" x2="1975.95" y2="382.515" gradientUnits="userSpaceOnUse">
<stop offset="0.0531" stop-color="#622061"/>
<stop offset="1" stop-color="#EC1459"/>
</linearGradient>
<linearGradient id="paint2_linear" x1="-2817.89" y1="1358.02" x2="3389.5" y2="-393.87" gradientUnits="userSpaceOnUse">
<stop stop-color="#EC1459"/>
<stop offset="1" stop-color="#622061"/>
</linearGradient>
<clipPath id="clip0">
<rect width="1478" height="1478" fill="white"/>
</clipPath>
</defs>
</svg>
