<svg width="48" height="48" viewBox="0 0 48 48" fill="none" xmlns="http://www.w3.org/2000/svg">
<mask id="mask0" mask-type="alpha" maskUnits="userSpaceOnUse" x="0" y="0" width="48" height="48">
<circle cx="24" cy="24" r="24" fill="#C4C4C4"/>
</mask>
<g mask="url(#mask0)">
<path d="M23.263 33.5956C12.7894 33.7061 4.94641 31.9594 -0.800049 29.6554C-0.693221 30.1419 -0.573039 30.6283 -0.435053 31.1103C1.12185 36.5945 4.49114 41.3985 9.13036 44.749C13.7696 48.0995 19.4088 49.8015 25.14 49.5809C30.8712 49.3603 36.3609 47.23 40.7253 43.533C45.0897 39.836 48.0748 34.7873 49.1999 29.2C43.0751 31.5393 34.6268 33.4717 23.263 33.5956Z" fill="url(#paint0_linear)"/>
<path d="M22.826 33.9944C35.5508 33.8548 45.0108 31.6768 51.8442 29.0403C52.7342 24.6028 52.5531 20.017 51.3159 15.6635C51.2761 15.504 51.2262 15.3545 51.1813 15.2C48.9363 16.2112 46.5997 17.0056 44.2034 17.5723C39.2192 18.8033 32.2911 19.7752 22.6615 19.8799C18.3361 19.9354 14.0108 19.7691 9.70245 19.3815C5.04798 19.0037 0.441957 18.169 -4.04909 16.8895C-5.02624 21.0517 -5.05009 25.3809 -4.11887 29.5537C2.3158 32.1503 11.098 34.1189 22.826 33.9944Z" fill="url(#paint1_linear)"/>
<path d="M22.9968 20.7874C31.5695 20.694 37.7506 19.8272 42.1878 18.7293C44.3211 18.2238 46.4013 17.5153 48.4 16.6133C46.7938 11.221 43.4528 6.51216 38.8971 3.22012C34.3415 -0.0719202 28.8271 -1.76232 23.2126 -1.58782C17.5982 -1.41333 12.1989 0.61628 7.85574 4.1849C3.51258 7.75351 0.46933 12.6608 -0.800049 18.1425C3.19811 19.2837 7.29862 20.0282 11.4423 20.3651C15.284 20.704 19.1406 20.8449 22.9968 20.7874Z" fill="url(#paint2_linear)"/>
</g>
<path d="M30.3555 18.4001C29.6755 18.4001 29.1555 17.8801 29.1555 17.2001V12.8001C29.1555 12.1201 29.6755 11.6001 30.3555 11.6001C31.0355 11.6001 31.5555 12.1201 31.5555 12.8001V17.2001C31.5555 17.8801 30.9955 18.4001 30.3555 18.4001Z" fill="white"/>
<path d="M24.4356 17.0001C24.1556 16.7601 23.7556 16.7601 23.4756 17.0001L13.0756 25.8001C12.9956 25.8801 12.9556 25.9601 12.9556 26.0401V36.4001C12.9556 36.6001 13.1156 36.7601 13.3156 36.7601H20.6356C20.8356 36.7601 20.9956 36.6001 20.9956 36.4001V29.8001C20.9956 29.0401 21.6356 28.4401 22.4356 28.4401H25.5156C26.3156 28.4401 26.9556 29.0401 26.9556 29.8001V36.4401C26.9556 36.6401 27.1156 36.8001 27.3156 36.8001H34.6356C34.8356 36.8001 34.9956 36.6401 34.9956 36.4401V26.0801C34.9956 26.0001 34.9556 25.8801 34.8756 25.8401L24.4356 17.0001ZM23.9556 24.8001C22.9556 24.8001 22.1556 24.0001 22.1556 23.0001C22.1556 22.0001 22.9556 21.2001 23.9556 21.2001C24.9556 21.2001 25.7556 22.0001 25.7556 23.0001C25.7556 24.0001 24.9556 24.8001 23.9556 24.8001Z" fill="white"/>
<path d="M35.9152 20.9201L25.5952 12.2001C24.6752 11.4001 23.2752 11.4001 22.3152 12.2001L11.9952 20.9201C11.4752 21.3601 11.4752 22.1201 11.9552 22.5601C12.3952 22.9601 13.0752 23.0001 13.5552 22.6001L23.1552 14.4801C23.6352 14.0801 24.3152 14.0801 24.7952 14.4801L34.3952 22.6001C34.8752 23.0001 35.5552 22.9601 35.9952 22.5601C36.4352 22.0801 36.4352 21.3201 35.9152 20.9201Z" fill="white"/>
<defs>
<linearGradient id="paint0_linear" x1="-10.3298" y1="46.2831" x2="65.7415" y2="24.6735" gradientUnits="userSpaceOnUse">
<stop offset="0.05" stop-color="#EC1459"/>
<stop offset="0.97" stop-color="#622061"/>
</linearGradient>
<linearGradient id="paint1_linear" x1="-25.3538" y1="37.013" x2="71.6766" y2="9.62757" gradientUnits="userSpaceOnUse">
<stop offset="0.05" stop-color="#622061"/>
<stop offset="1" stop-color="#EC1459"/>
</linearGradient>
<linearGradient id="paint2_linear" x1="-98.5818" y1="45.3244" x2="115.393" y2="-14.9547" gradientUnits="userSpaceOnUse">
<stop stop-color="#EC1459"/>
<stop offset="1" stop-color="#622061"/>
</linearGradient>
</defs>
</svg>
